
<svg width="89px" height="82px" viewBox="0 0 89 82" version="1.1" xmlns="http://www.w3.org/2000/svg" xmlns:xlink="http://www.w3.org/1999/xlink">
    <!-- Generator: Sketch 47 (45396) - http://www.bohemiancoding.com/sketch -->
    <desc>Created with Sketch.</desc>
    <defs></defs>
    <g id="Page-1" stroke="none" stroke-width="1" fill="none" fill-rule="evenodd">
        <g id="Group-29" transform="translate(0.000000, 1.000000)">
            <g id="Group" transform="translate(1.000000, 1.000000)">
                <g transform="translate(3.000000, 0.000000)" id="Shape" fill-rule="nonzero">
                    <path d="M80.5,40 C80.5,17.9 62.6,0 40.5,0 C18.4,0 0.5,17.9 0.5,40 C0.5,45.9 1.8,51.5 4.1,56.5 L77,56.5 C79.2,51.5 80.5,45.9 80.5,40 Z" fill="#BDFBFC"></path>
                    <path d="M4.1,56.5 C10.4,70.4 24.3,80 40.5,80 C56.7,80 70.7,70.4 76.9,56.5 L4.1,56.5 Z" fill="#FCEFD9"></path>
                    <path d="M75.1,60 C75.8,58.9 76.4,57.7 76.9,56.5 L4,56.5 C4.5,57.7 5.2,58.9 5.8,60 L75.1,60 Z" fill="#FFF5E3"></path>
                </g>
                <g transform="translate(0.000000, 56.000000)" id="Shape" stroke="#45413C" stroke-linecap="round" stroke-linejoin="round">
                    <path d="M4.5,0.5 L82.5,0.5"></path>
                    <path d="M0,0.5 L2.5,0.5"></path>
                    <path d="M84.5,0.5 L87,0.5"></path>
                </g>
            </g>
            <g id="Group">
                <path d="M64.4,57.5 L64.4,49.8 C64.4,41.2 57.4,34.2 48.8,34.2 C40.1,34.2 33.2,41.2 33.2,49.8 L33.2,57.5 L64.4,57.5 Z" id="Shape" fill="#00B8F0" fill-rule="nonzero"></path>
                <path d="M48.7,34.2 C40,34.2 33.1,41.2 33.1,49.8 L33.1,54.6 C33.1,46 40.1,39 48.7,39 C57.4,39 64.3,46 64.3,54.6 L64.3,49.8 C64.4,41.2 57.4,34.2 48.7,34.2 Z" id="Shape" fill="#4ACFFF" fill-rule="nonzero"></path>
                <ellipse id="Oval" fill="#45413C" fill-rule="nonzero" opacity="0.15" cx="15.8" cy="65.6" rx="15" ry="1.5"></ellipse>
                <ellipse id="Oval" fill="#45413C" fill-rule="nonzero" opacity="0.15" cx="59.3" cy="69" rx="19.5" ry="1.5"></ellipse>
                <path d="M49.3,62.9 L45.7,62.9 L45.7,67.7 L49.3,67.7 C50.6,67.7 51.7,66.6 51.7,65.3 C51.7,64 50.6,62.9 49.3,62.9 Z" id="Shape" stroke="#45413C" fill="#FFCEBF" fill-rule="nonzero" stroke-linecap="round" stroke-linejoin="round"></path>
                <path d="M64.4,57.5 L64.4,49.8 C64.4,41.2 57.4,34.2 48.8,34.2 C40.1,34.2 33.2,41.2 33.2,49.8 L33.2,57.5 L64.4,57.5 Z" id="Shape" stroke="#45413C" stroke-linejoin="round"></path>
                <path d="M48.7,43.6 L45.7,37.9 C45.3,37.2 45.1,36.4 45.1,35.6 L45.1,34.6 L45.1,29.8 C45.1,29.8 41.5,28.6 39.7,29.8 C37.9,31 36.3,33.1 36.7,35.2 C37,36.7 38,38 39.5,38.6 L48.7,43.6 Z" id="Shape" stroke="#45413C" fill="#00B8F0" fill-rule="nonzero" stroke-linecap="round" stroke-linejoin="round"></path>
                <path d="M40.4,34.1 L45.1,36.9 L45.1,29.8 C45.1,29.8 41.5,28.6 39.7,29.8 C39.5,29.9 39.3,30.1 39.1,30.2 C38.6,31.6 39.1,33.2 40.4,34.1 Z" id="Shape" stroke="#45413C" fill="#FFFFFF" fill-rule="nonzero" stroke-linecap="round" stroke-linejoin="round"></path>
                <path d="M48.7,43.6 L51.7,37.9 C52.1,37.2 52.3,36.4 52.3,35.6 L52.3,34.6 L52.3,29.8 C52.3,29.8 55.9,28.6 57.7,29.8 C59.5,31 61.1,33.1 60.7,35.2 C60.4,36.7 59.4,38 57.9,38.6 L48.7,43.6 Z" id="Shape" stroke="#45413C" fill="#00B8F0" fill-rule="nonzero" stroke-linecap="round" stroke-linejoin="round"></path>
                <path d="M57,34.1 L52.3,36.9 L52.3,29.8 C52.3,29.8 55.9,28.6 57.7,29.8 C57.9,29.9 58.1,30.1 58.3,30.2 C58.9,31.6 58.4,33.2 57,34.1 Z" id="Shape" stroke="#45413C" fill="#FFFFFF" fill-rule="nonzero" stroke-linecap="round" stroke-linejoin="round"></path>
                <path d="M52.3,35.6 C52.3,36.4 52.1,37.2 51.7,37.9 L48.7,43.6 L45.7,37.9 C45.3,37.2 45.1,36.4 45.1,35.6 L45.1,31.4 L52.3,31.4 L52.3,35.6 Z" id="Shape" fill="#FFCEBF" fill-rule="nonzero"></path>
                <path d="M58.3,48.8 L58.3,48.2" id="Shape" stroke="#45413C" stroke-linecap="round" stroke-linejoin="round"></path>
                <path d="M58.3,57.5 L58.3,48.2" id="Shape" stroke="#45413C" stroke-linecap="round" stroke-linejoin="round"></path>
                <path d="M39.1,56.9 L39.1,48.2" id="Shape" stroke="#45413C" stroke-linecap="round" stroke-linejoin="round"></path>
                <path d="M45.1,34.6 C47.2,35.6 50.1,35.6 52.3,34.6 L52.3,31.4 L45.1,31.4 L45.1,34.6 Z" id="Shape" fill="#FFB59E" fill-rule="nonzero"></path>
                <path d="M52.3,35.6 C52.3,36.4 52.1,37.2 51.7,37.9 L48.7,43.6 L45.7,37.9 C45.3,37.2 45.1,36.4 45.1,35.6 L45.1,31.4 L52.3,31.4 L52.3,35.6 Z" id="Shape" stroke="#45413C" stroke-linecap="round" stroke-linejoin="round"></path>
                <path d="M58.9,20.8 L58.9,18.4 C58.9,12.8 54.3,8.2 48.7,8.2 C43.1,8.2 38.5,12.8 38.5,18.4 L38.5,20.8 C37.5,20.8 36.7,21.6 36.7,22.6 L36.7,23.2 C36.7,24.2 37.5,25 38.5,25 L38.7,25 C39.5,29.8 43.7,33.4 48.8,33.4 C53.8,33.4 58,29.8 58.9,25 L59.1,25 C60.1,25 60.9,24.2 60.9,23.2 L60.9,22.6 C60.7,21.6 59.9,20.8 58.9,20.8 Z" id="Shape" stroke="#45413C" fill="#FFCEBF" fill-rule="nonzero" stroke-linecap="round" stroke-linejoin="round"></path>
                <circle id="Oval" fill="#FFB59E" fill-rule="nonzero" cx="54.7" cy="25" r="1.2"></circle>
                <circle id="Oval" fill="#FFB59E" fill-rule="nonzero" cx="42.7" cy="25" r="1.2"></circle>
                <path d="M54.1,21.8 C53.8,21.2 53.2,20.8 52.6,20.8 C52,20.8 51.4,21.2 51.1,21.8" id="Shape" stroke="#45413C" stroke-linecap="round" stroke-linejoin="round"></path>
                <path d="M46.3,21.8 C46,21.2 45.4,20.8 44.8,20.8 C44.1,20.8 43.6,21.2 43.3,21.8" id="Shape" stroke="#45413C" stroke-linecap="round" stroke-linejoin="round"></path>
                <path d="M45.7,27.4 C47.5,29 49.9,29 51.7,27.4" id="Shape" stroke="#45413C" stroke-linecap="round" stroke-linejoin="round"></path>
                <path d="M33.1,52.2 L33.1,56.8 C33.1,63.1 38.2,68.3 44.6,68.3 L45.8,68.3 L45.8,63.3 C45.8,62.7 45.4,62.3 44.8,62.3 L44.6,62.3 C41.6,62.3 39.1,59.9 39.1,56.8 L39.1,52" id="Shape" stroke="#45413C" fill="#00B8F0" fill-rule="nonzero" stroke-linecap="round" stroke-linejoin="round"></path>
                <path d="M43.9,38.8 C43.9,38.8 45.7,43 45.7,49" id="Shape" stroke="#45413C" fill="#FFFFFF" fill-rule="nonzero" stroke-linecap="round" stroke-linejoin="round"></path>
                <path d="M53.5,38.8 C53.5,38.8 51.7,43 51.7,49" id="Shape" stroke="#45413C" fill="#FFFFFF" fill-rule="nonzero" stroke-linecap="round" stroke-linejoin="round"></path>
                <path d="M47.5,6.3 C40.3,6.3 37.3,11.6 37.3,16.5 L37.3,20.7 C40.3,20.7 40.3,17.1 40.3,17.1 C40.3,17.1 47.5,18.3 52.3,14.7 C52.3,14.7 55.3,20.7 60.1,20.7 L60.1,16.5 C60.1,10.4 58.8,8.1 52.9,8.1 C52.9,8.1 52.3,6.3 47.5,6.3 Z" id="Shape" fill="#FFDF3D" fill-rule="nonzero"></path>
                <path d="M48.7,9.3 C53.6,9.3 57.8,12.4 60.1,17.1 L60.1,16.5 C60.1,10.4 58.8,8.1 52.9,8.1 C52.9,8.1 52.3,6.3 47.5,6.3 C40.3,6.3 37.3,11.6 37.3,16.5 L37.3,17.1 C39.6,12.5 43.8,9.3 48.7,9.3 Z" id="Shape" fill="#FFEF9E" fill-rule="nonzero"></path>
                <path d="M47.5,6.3 C40.3,6.3 37.3,11.6 37.3,16.5 L37.3,20.7 C40.3,20.7 40.3,17.1 40.3,17.1 C40.3,17.1 47.5,18.3 52.3,14.7 C52.3,14.7 55.3,20.7 60.1,20.7 L60.1,16.5 C60.1,10.4 58.8,8.1 52.9,8.1 C52.9,8.1 52.3,6.3 47.5,6.3 Z" id="Shape" stroke="#45413C" stroke-linecap="round" stroke-linejoin="round"></path>
                <path d="M45.4,24.4 L42.1,24.4 C40.8,24.4 39.7,23.3 39.7,22 L39.7,20 C39.7,19.4 40.1,19 40.7,19 L46.8,19 C47.5,19 48.1,19.6 48,20.3 L47.8,22.2 C47.6,23.4 46.6,24.4 45.4,24.4 Z" id="Shape" stroke="#45413C" stroke-linecap="round" stroke-linejoin="round"></path>
                <path d="M52.1,24.4 L55.4,24.4 C56.7,24.4 57.8,23.3 57.8,22 L57.8,20 C57.8,19.4 57.4,19 56.8,19 L50.7,19 C50,19 49.4,19.6 49.5,20.3 L49.7,22.2 C49.8,23.4 50.8,24.4 52.1,24.4 Z" id="Shape" stroke="#45413C" stroke-linecap="round" stroke-linejoin="round"></path>
                <path d="M47.9,20.8 L49.5,20.8" id="Shape" stroke="#45413C" stroke-linecap="round" stroke-linejoin="round"></path>
                <path d="M27.4,63.7 C27.4,64.3 27,64.7 26.4,64.7 L4.3,64.7 C3.7,64.7 3.3,64.3 3.3,63.7 L3.3,63.3 C3.3,62.7 3.7,62.3 4.3,62.3 L26.4,62.3 C27,62.3 27.4,62.7 27.4,63.3 L27.4,63.7 Z" id="Shape" stroke="#45413C" fill="#FFFFFF" fill-rule="nonzero" stroke-linecap="round" stroke-linejoin="round"></path>
                <path d="M28.6,61.3 C28.6,61.9 28.2,62.3 27.6,62.3 L5.5,62.3 C4.9,62.3 4.5,61.9 4.5,61.3 L4.5,60.9 C4.5,60.3 4.9,59.9 5.5,59.9 L27.6,59.9 C28.2,59.9 28.6,60.3 28.6,60.9 L28.6,61.3 Z" id="Shape" stroke="#45413C" fill="#FFFFFF" fill-rule="nonzero" stroke-linecap="round" stroke-linejoin="round"></path>
                <path d="M27.4,58.9 C27.4,59.5 27,59.9 26.4,59.9 L4.3,59.9 C3.7,59.9 3.3,59.5 3.3,58.9 L3.3,58.5 C3.3,57.9 3.7,57.5 4.3,57.5 L26.4,57.5 C27,57.5 27.4,57.9 27.4,58.5 L27.4,58.9 Z" id="Shape" stroke="#45413C" fill="#FFFFFF" fill-rule="nonzero" stroke-linecap="round" stroke-linejoin="round"></path>
                <path d="M28.6,56.5 C28.6,57.1 28.2,57.5 27.6,57.5 L5.5,57.5 C4.9,57.5 4.5,57.1 4.5,56.5 L4.5,56.1 C4.5,55.5 4.9,55.1 5.5,55.1 L27.6,55.1 C28.2,55.1 28.6,55.5 28.6,56.1 L28.6,56.5 Z" id="Shape" stroke="#45413C" fill="#FFFFFF" fill-rule="nonzero" stroke-linecap="round" stroke-linejoin="round"></path>
                <g transform="translate(40.000000, 46.000000)" id="Shape">
                    <path d="M13.9,19.3 L11.5,19.3 L17.2,1.5 C17.4,1 17.8,0.7 18.3,0.7 L19.8,0.7" stroke="#45413C" fill="#E8F4FA" fill-rule="nonzero" stroke-linejoin="round"></path>
                    <path d="M37.4,19.3 L13.9,19.3 L19.9,0.6 L41.7,0.6 C42.1,0.6 42.4,0.8 42.7,1.1 C42.9,1.4 43,1.8 42.9,2.2 L37.4,19.3 Z" stroke="#45413C" fill="#ADC4D9" fill-rule="nonzero" stroke-linejoin="round"></path>
                    <polygon fill="#C0DCEB" fill-rule="nonzero" points="35.8 0.6 19.9 0.6 13.9 19.3 17.1 19.3"></polygon>
                    <path d="M37.4,19.3 L12.7,19.3 L12.7,22.3 L35,22.3 C36.3,22.3 37.4,21.2 37.4,19.9 L37.4,19.3 Z" stroke="#45413C" fill="#C0DCEB" fill-rule="nonzero" stroke-linejoin="round"></path>
                    <path d="M12.7,19.3 L1.3,19.3 C1,19.3 0.7,19.6 0.7,19.9 C0.7,21.2 1.8,22.3 3.1,22.3 L12.7,22.3 L12.7,19.3 Z" stroke="#45413C" fill="#E8F4FA" fill-rule="nonzero" stroke-linejoin="round"></path>
                    <g transform="translate(26.000000, 5.000000)" stroke="#45413C" stroke-linejoin="round">
                        <path d="M4.6,4.3 C4.6,3.6 5.2,3.2 5.2,3.2 C4.9,2.7 4.3,2.6 4.1,2.6 C3.6,2.6 3.2,2.9 3,2.9 C2.8,2.9 2.4,2.6 2,2.6 C1.5,2.6 1,2.9 0.8,3.3 C0.3,4.2 0.7,5.5 1.2,6.3 C1.4,6.7 1.7,7.1 2.1,7 C2.5,7 2.6,6.8 3.1,6.8 C3.6,6.8 3.7,7 4.1,7 C4.5,7 4.8,6.6 5,6.3 C5.3,5.9 5.4,5.5 5.4,5.5 C5.3,5.5 4.6,5.2 4.6,4.3 Z" fill="#FFFFFF" fill-rule="nonzero"></path>
                        <path d="M3.5,1 L4.1,0.5" stroke-linecap="round"></path>
                    </g>
                    <path d="M37.4,19.3 L13.9,19.3 L19.9,0.6 L41.7,0.6 C42.1,0.6 42.4,0.8 42.7,1.1 C42.9,1.4 43,1.8 42.9,2.2 L37.4,19.3 Z" stroke="#45413C" stroke-linejoin="round"></path>
                </g>
                <g transform="translate(31.000000, 0.000000)" id="Shape">
                    <path d="M31.1,17.2 L29.1,17.2 L29.1,15 C29.1,8.7 24,3.6 17.7,3.6 C11.4,3.6 6.3,8.7 6.3,15 L6.3,17.2 L4.3,17.2 L4.3,15 C4.3,7.6 10.3,1.6 17.7,1.6 C25.1,1.6 31.1,7.6 31.1,15 L31.1,17.2 Z" stroke="#45413C" fill="#ADC4D9" fill-rule="nonzero" stroke-linecap="round" stroke-linejoin="round"></path>
                    <path d="M11.7,5.6 C11.1,5.6 10.5,5.3 10.2,4.7 C9.7,3.9 9.9,2.7 10.8,2.2 C15,-0.4 20.6,-0.4 24.7,2.2 C25.5,2.7 25.8,3.8 25.3,4.7 C24.8,5.5 23.7,5.8 22.8,5.3 C19.8,3.4 15.7,3.4 12.7,5.3 C12.3,5.5 12,5.6 11.7,5.6 Z" fill="#656769" fill-rule="nonzero"></path>
                    <path d="M10.7,3.9 C14.9,1.3 20.5,1.3 24.6,3.9 C24.9,4.1 25.1,4.3 25.3,4.6 C25.7,3.8 25.5,2.7 24.6,2.2 C20.4,-0.4 14.8,-0.4 10.7,2.2 C9.9,2.7 9.6,3.7 10,4.6 C10.2,4.3 10.5,4.1 10.7,3.9 Z" fill="#87898C" fill-rule="nonzero"></path>
                    <path d="M11.7,5.6 C11.1,5.6 10.5,5.3 10.2,4.7 C9.7,3.9 9.9,2.7 10.8,2.2 C15,-0.4 20.6,-0.4 24.7,2.2 C25.5,2.7 25.8,3.8 25.3,4.7 C24.8,5.5 23.7,5.8 22.8,5.3 C19.8,3.4 15.7,3.4 12.7,5.3 C12.3,5.5 12,5.6 11.7,5.6 Z" stroke="#45413C"></path>
                    <path d="M6.5,27.4 L3.9,27.4 L3.9,17.2 L6.5,17.2 C7.1,17.2 7.5,17.6 7.5,18.2 L7.5,26.4 C7.5,26.9 7,27.4 6.5,27.4 Z" fill="#656769" fill-rule="nonzero"></path>
                    <path d="M3.9,17.2 C2.6,17.2 0.2,19 0.2,22.3 C0.2,25.6 2.5,27.4 3.9,27.4 L3.9,17.2 Z" fill="#8CA4B8" fill-rule="nonzero"></path>
                    <path d="M6.5,17.2 L3.9,17.2 L3.9,19.1 L6.5,19.1 C7.1,19.1 7.5,19.5 7.5,20.1 L7.5,18.2 C7.5,17.6 7,17.2 6.5,17.2 Z" fill="#87898C" fill-rule="nonzero"></path>
                    <path d="M0.2,22.3 C0.2,22.6 0.2,22.9 0.3,23.2 C0.7,20.5 2.7,19 3.9,19 L3.9,17.1 C2.5,17.2 0.2,19 0.2,22.3 Z" fill="#ADC4D9" fill-rule="nonzero"></path>
                    <g transform="translate(0.000000, 17.000000)" stroke="#45413C" stroke-linecap="round" stroke-linejoin="round">
                        <path d="M6.5,10.4 L3.9,10.4 L3.9,0.2 L6.5,0.2 C7.1,0.2 7.5,0.6 7.5,1.2 L7.5,9.4 C7.5,9.9 7,10.4 6.5,10.4 Z"></path>
                        <path d="M3.9,0.2 C2.6,0.2 0.2,2 0.2,5.3 C0.2,8.6 2.5,10.4 3.9,10.4 L3.9,0.2 Z"></path>
                    </g>
                    <path d="M28.9,27.4 L31.5,27.4 L31.5,17.2 L28.9,17.2 C28.3,17.2 27.9,17.6 27.9,18.2 L27.9,26.4 C27.9,26.9 28.4,27.4 28.9,27.4 Z" fill="#656769" fill-rule="nonzero"></path>
                    <path d="M31.5,17.2 C32.8,17.2 35.2,19 35.2,22.3 C35.2,25.6 32.9,27.4 31.5,27.4 L31.5,17.2 Z" fill="#8CA4B8" fill-rule="nonzero"></path>
                    <path d="M28.9,17.2 L31.5,17.2 L31.5,19.1 L28.9,19.1 C28.3,19.1 27.9,19.5 27.9,20.1 L27.9,18.2 C27.9,17.6 28.4,17.2 28.9,17.2 Z" fill="#87898C" fill-rule="nonzero"></path>
                    <path d="M35.2,22.3 C35.2,22.6 35.2,22.9 35.1,23.2 C34.7,20.5 32.7,19 31.5,19 L31.5,17.1 C32.9,17.2 35.2,19 35.2,22.3 Z" fill="#ADC4D9" fill-rule="nonzero"></path>
                    <g transform="translate(27.000000, 17.000000)" stroke="#45413C" stroke-linecap="round" stroke-linejoin="round">
                        <path d="M1.9,10.4 L4.5,10.4 L4.5,0.2 L1.9,0.2 C1.3,0.2 0.9,0.6 0.9,1.2 L0.9,9.4 C0.9,9.9 1.4,10.4 1.9,10.4 Z"></path>
                        <path d="M4.5,0.2 C5.8,0.2 8.2,2 8.2,5.3 C8.2,8.6 5.9,10.4 4.5,10.4 L4.5,0.2 Z"></path>
                    </g>
                </g>
            </g>
        </g>
    </g>
</svg>